Campaign,"Spend ","No of advert clicks","Get a Quote visits","Av cost per GaQ VISTIS","GaQ forms submitted","GaQ conversion rate","Av cost per GaQ submission","Avg cost as proporion of total spend","Proportion of budget for GaQ","Email link clicks","Proportion of budget on Emails","Phone Clicks","Proportion of budget on Phones","Av cost per interaction (email, phone or form submission)"


Adwords,£4827.23,4989,654,£7.38,240,4.81%,£20.11,£9.5,£2280.58,62,589.15,206,1957.5,£9.5

Facebook,£250,765,353,£0.71,17,2.22%,£14.71,£1.66,£28.15,114,£188.74,20,£33.11,£1.66

"Total Paid Traffic",£5077.23,5754,1007,£5.04,257,4.47%,£19.76,£8.98,£2308.73,176,£777.89,226,£1990.61,£7.7

Organic,£-,1466,39,£0.00,4,0.27%,£0.00,£0.00,£0.00,2," £- ",9," £- "," £- "

"Total overall",5077.23,7220,1046,£4.85,261,3.61%,£19.45,£7.53,£1966.11,178,£1340.87,235,£1770.25,£7.53
