Campaign,"Spend ","No of advert clicks","Get a Quote visits","Av cost per GaQ VISTIS","GaQ forms submitted","GaQ conversion rate","Av cost per GaQ submission","Avg cost as proporion of total spend for forms","Proportion of budget for GaQ","Email link clicks","Avg cost as proportion of total spend for emails","Proportion of budget on Emails","Phone Clicks","Avg cost as proportion of total spend for phones","Proportion of budget on Phones","Av cost per interaction (email, phone or form submission)"


Adwords,£4763.47,4061,800,£5.95,179,4.41%,£26.61,£11.18,£2001.55,51,£11.18,£570.27,196,£11.18,2191.64,£11.18

"Total Paid Traffic",£4763.47,4061,800,£5.95,179,4.41%,£26.61,£0,£0,51,£0,£0,196,£0,£0,£11.18

Organic,£-,1647,173,£0.00,55,3.34%,£0.00,£0.00,£0.00,8,£0.00," £- ",64,£0.00," £- "," £- "

"Total overall",4763.47,5708,973,£4.9,234,4.1%,£20.36,£8.61,£2015.65,59,£8.61,£508.22,260,£INF,£2239.61,£8.61
